<?xml version="1.0" encoding="UTF-8" standalone="no"?>
<svg
   xmlns:sketch="http://www.bohemiancoding.com/sketch/ns"
   xmlns:dc="http://purl.org/dc/elements/1.1/"
   xmlns:cc="http://creativecommons.org/ns#"
   xmlns:rdf="http://www.w3.org/1999/02/22-rdf-syntax-ns#"
   xmlns:svg="http://www.w3.org/2000/svg"
   xmlns="http://www.w3.org/2000/svg"
   xmlns:xlink="http://www.w3.org/1999/xlink"
   xmlns:sodipodi="http://sodipodi.sourceforge.net/DTD/sodipodi-0.dtd"
   xmlns:inkscape="http://www.inkscape.org/namespaces/inkscape"
   width="100%"
   height="100%"
   viewBox="0 0 1290 91"
   preserveAspectRatio="none"
   version="1.1"
   id="svg3499"
   inkscape:version="0.91 r13725"
   sodipodi:docname="header_ef.svg">
  <metadata
     id="metadata3542">
    <rdf:RDF>
      <cc:Work
         rdf:about="">
        <dc:format>image/svg+xml</dc:format>
        <dc:type
           rdf:resource="http://purl.org/dc/dcmitype/StillImage" />
      </cc:Work>
    </rdf:RDF>
  </metadata>
  <sodipodi:namedview
     pagecolor="#ffffff"
     bordercolor="#666666"
     borderopacity="1"
     objecttolerance="10"
     gridtolerance="10"
     guidetolerance="10"
     inkscape:pageopacity="0"
     inkscape:pageshadow="2"
     inkscape:window-width="1881"
     inkscape:window-height="1056"
     id="namedview3540"
     showgrid="false"
     inkscape:zoom="0.94006832"
     inkscape:cx="544.53607"
     inkscape:cy="-4.5187855"
     inkscape:window-x="1405"
     inkscape:window-y="24"
     inkscape:window-maximized="1"
     inkscape:current-layer="Artboard-1" />
  <!-- Generator: Sketch 3.4.4 (17249) - http://www.bohemiancoding.com/sketch -->
  <title
     id="title3501">Artboard 1</title>
  <desc
     id="desc3503">Created with Sketch.</desc>
  <defs
     id="defs3505">
    <linearGradient
       x1="135.120841%"
       y1="23.6890236%"
       x2="-14.0213703%"
       y2="23.6890236%"
       id="linearGradient-1">
      <stop
         stop-color="#041823"
         stop-opacity="0.491140172"
         offset="0%"
         id="stop3508" />
      <stop
         stop-color="#020B10"
         offset="100%"
         id="stop3510" />
    </linearGradient>
    <linearGradient
       x1="105.49467"
       y1="160.95075"
       x2="105.49467"
       y2="0"
       id="linearGradient-2"
       gradientTransform="scale(2.2385238,0.44672296)"
       gradientUnits="userSpaceOnUse">
      <stop
         stop-color="#FFCC00"
         offset="0%"
         id="stop3513" />
      <stop
         stop-color="#FF9600"
         offset="100%"
         id="stop3515" />
    </linearGradient>
    <linearGradient
       x1="119.78385"
       y1="105.86791"
       x2="16.690318"
       y2="105.86791"
       id="linearGradient-3"
       gradientTransform="scale(3.2994054,0.30308491)"
       gradientUnits="userSpaceOnUse">
      <stop
         stop-color="#FFCC00"
         offset="0%"
         id="stop3518" />
      <stop
         stop-color="#F7A602"
         offset="21.087771%"
         id="stop3520" />
      <stop
         stop-color="#F29004"
         offset="100%"
         id="stop3522" />
    </linearGradient>
    <linearGradient
       inkscape:collect="always"
       xlink:href="#linearGradient-1"
       id="linearGradient3554"
       x1="462.90914"
       y1="81.155997"
       x2="-48.035674"
       y2="81.155997"
       gradientTransform="scale(3.7647145,0.26562439)"
       gradientUnits="userSpaceOnUse" />
    <linearGradient
       inkscape:collect="always"
       xlink:href="#linearGradient-1"
       id="linearGradient3556"
       x1="462.90914"
       y1="81.155997"
       x2="-48.035674"
       y2="81.155997"
       gradientTransform="scale(3.7647145,0.26562439)"
       gradientUnits="userSpaceOnUse" />
    <linearGradient
       inkscape:collect="always"
       xlink:href="#linearGradient-1"
       id="linearGradient3558"
       x1="214.30607"
       y1="37.571569"
       x2="-22.238352"
       y2="37.571569"
       gradientTransform="scale(3.5245173,0.2837268)"
       gradientUnits="userSpaceOnUse" />
    <linearGradient
       inkscape:collect="always"
       xlink:href="#linearGradient-1"
       id="linearGradient3560"
       x1="214.30607"
       y1="37.571569"
       x2="-22.238352"
       y2="37.571569"
       gradientTransform="scale(3.5245173,0.2837268)"
       gradientUnits="userSpaceOnUse" />
    <linearGradient
       inkscape:collect="always"
       xlink:href="#linearGradient-1"
       id="linearGradient3562"
       x1="296.58684"
       y1="37.571569"
       x2="60.042418"
       y2="37.571569"
       gradientTransform="scale(3.5245173,0.2837268)"
       gradientUnits="userSpaceOnUse" />
  </defs>
  <g
     id="Page-1"
     stroke="none"
     stroke-width="1"
     fill="none"
     fill-rule="evenodd"
     sketch:type="MSPage">
    <g
       id="Artboard-1"
       sketch:type="MSArtboardGroup">
      <g
         style="fill:url(#linearGradient3556)"
         sketch:type="MSShapeGroup"
         id="box">
        <path
           inkscape:connector-curvature="0"
           style="fill:url(#linearGradient3554)"
           id="Rectangle-12"
           d="m 0,0 308,0 573.53125,0 18.48828,0 389.73037,0 -20.7501,40.250682 -380.17949,0 -18.3125,0 -561.91992,0 L 283,91 0,91 0,0 Z" />
      </g>
      <g
         style="opacity:0.9;fill:url(#linearGradient3562)"
         sketch:type="MSShapeGroup"
         transform="translate(0,46)"
         id="menu">
        <g
           style="fill:url(#linearGradient3560)"
           transform="translate(290,0)"
           id="g3537">
          <path
             inkscape:connector-curvature="0"
             style="fill:url(#linearGradient3558)"
             id="Rectangle-84"
             d="M 23,0 559,0 537,45 0,45 23,0 Z" />
        </g>
      </g>
    </g>
  </g>
</svg>
